\relax 
\select@language{english}
\@writefile{toc}{\select@language{english}}
\@writefile{lof}{\select@language{english}}
\@writefile{lot}{\select@language{english}}
\@writefile{toc}{\contentsline {paragraph}{In order to see the results for the courseworks' question 1 the user need to run the function named ``Q2Run.m'' from the source code.}{1}}
\@writefile{lot}{\contentsline {table}{\numberline {1}{\ignorespaces The Price-Yield Relation table for semi-annual compoundings}}{3}}
\newlabel{tab:confusion}{{1}{3}}
\@writefile{toc}{\contentsline {paragraph}{maximize $r'w$ }{4}}
\@writefile{lot}{\contentsline {table}{\numberline {2}{\ignorespaces The means and standard derivations of the portofolios on the averaged frontiers 24 month}}{7}}
\newlabel{tab:confusion2}{{2}{7}}
\@writefile{lot}{\contentsline {table}{\numberline {3}{\ignorespaces The means and standard derivations of the portofolios on the averaged frontiers 360 month}}{8}}
\newlabel{tab:confusion3}{{3}{8}}
\@writefile{lot}{\contentsline {table}{\numberline {4}{\ignorespaces The means and standard derivations of the portofolios on the averaged frontiers 1800 month}}{9}}
\newlabel{tab:confusion4}{{4}{9}}
